src/cnt_trace.vcd
$date
     Dec 13, 2021       19:21:58
$end

$version
 SystemC 2.3.3-Accellera --- Oct 17 2021 18:22:59
$end

$timescale
     1 ps
$end

$scope module SystemC $end
$var wire    1  aaaaa  clock       $end
$var wire    8  aaaab  input [7:0]  $end
$var wire    1  aaaac  clock_enable       $end
$var wire    1  aaaad  asynchronous_clear       $end
$var wire    1  aaaae  increment       $end
$var wire    8  aaaaf  output [7:0]  $end
$upscope $end
$enddefinitions  $end

$comment
All initial values are dumped below at time 0 sec = 0 timescale units.
$end

$dumpvars
1aaaaa
b11111111 aaaab
0aaaac
1aaaad
0aaaae
b0 aaaaf
$end

#1000
0aaaaa

#2000
1aaaaa

#3000
0aaaaa
1aaaac
0aaaad

#4000
1aaaaa
b11111111 aaaaf

#5000
0aaaaa
0aaaac

#6000
1aaaaa

#7000
0aaaaa

#8000
1aaaaa

#9000
0aaaaa
b1111 aaaab
1aaaac

#10000
1aaaaa
b1111 aaaaf

#11000
0aaaaa
0aaaac
1aaaae

#12000
1aaaaa
b10000 aaaaf

#13000
0aaaaa
1aaaac

#14000
1aaaaa
b1111 aaaaf

#15000
0aaaaa
1aaaad
b0 aaaaf

#16000
1aaaaa

#17000
0aaaaa

#18000
1aaaaa

#19000
0aaaaa
0aaaac
0aaaad

#20000
1aaaaa
b1 aaaaf

#21000
0aaaaa

#22000
1aaaaa
b10 aaaaf

#23000
0aaaaa

#24000
1aaaaa
b11 aaaaf

#25000
0aaaaa

#26000
1aaaaa
b100 aaaaf

#27000
0aaaaa

#28000
1aaaaa
b101 aaaaf

#29000
0aaaaa

#30000
1aaaaa
b110 aaaaf

#31000
0aaaaa

#32000
1aaaaa
b111 aaaaf

#33000
0aaaaa

#34000
1aaaaa
b1000 aaaaf

#35000
0aaaaa

#36000
1aaaaa
b1001 aaaaf

#37000
0aaaaa

#38000
1aaaaa
b1010 aaaaf

#39000
0aaaaa

#40000
1aaaaa
b1011 aaaaf

#41000
0aaaaa

#42000
1aaaaa
b1100 aaaaf

#43000
0aaaaa

#44000
1aaaaa
b1101 aaaaf

#45000
0aaaaa

#46000
1aaaaa
b1110 aaaaf

#47000
0aaaaa

#48000
1aaaaa
b1111 aaaaf

#49000
0aaaaa

#50000
1aaaaa
b10000 aaaaf

#51000
0aaaaa

#52000
1aaaaa
b10001 aaaaf

#53000
0aaaaa

#54000
1aaaaa
b10010 aaaaf

#55000
0aaaaa

#56000
1aaaaa
b10011 aaaaf

#57000
0aaaaa

#58000
1aaaaa
b10100 aaaaf

#59000
0aaaaa

#60000
1aaaaa
b10101 aaaaf

#61000
0aaaaa

#62000
1aaaaa
b10110 aaaaf

#63000
0aaaaa

#64000
1aaaaa
b10111 aaaaf

#65000
0aaaaa

#66000
1aaaaa
b11000 aaaaf

#67000
0aaaaa

#68000
1aaaaa
b11001 aaaaf

#69000
0aaaaa

#70000
1aaaaa
b11010 aaaaf

#71000
0aaaaa

#72000
1aaaaa
b11011 aaaaf

#73000
0aaaaa

#74000
1aaaaa
b11100 aaaaf

#75000
0aaaaa

#76000
1aaaaa
b11101 aaaaf

#77000
0aaaaa

#78000
1aaaaa
b11110 aaaaf

#79000
0aaaaa

#80000
1aaaaa
b11111 aaaaf

#81000
0aaaaa

#82000
1aaaaa
b100000 aaaaf

#83000
0aaaaa

#84000
1aaaaa
b100001 aaaaf

#85000
0aaaaa

#86000
1aaaaa
b100010 aaaaf

#87000
0aaaaa

#88000
1aaaaa
b100011 aaaaf

#89000
0aaaaa

#90000
1aaaaa
b100100 aaaaf

#91000
0aaaaa

#92000
1aaaaa
b100101 aaaaf

#93000
0aaaaa

#94000
1aaaaa
b100110 aaaaf

#95000
0aaaaa

#96000
1aaaaa
b100111 aaaaf

#97000
0aaaaa

#98000
1aaaaa
b101000 aaaaf

#99000
0aaaaa

#100000
1aaaaa
b101001 aaaaf

#101000
0aaaaa

#102000
1aaaaa
b101010 aaaaf

#103000
0aaaaa

#104000
1aaaaa
b101011 aaaaf

#105000
0aaaaa

#106000
1aaaaa
b101100 aaaaf

#107000
0aaaaa

#108000
1aaaaa
b101101 aaaaf

#109000
0aaaaa

#110000
1aaaaa
b101110 aaaaf

#111000
0aaaaa

#112000
1aaaaa
b101111 aaaaf

#113000
0aaaaa

#114000
1aaaaa
b110000 aaaaf

#115000
0aaaaa

#116000
1aaaaa
b110001 aaaaf

#117000
0aaaaa

#118000
1aaaaa
b110010 aaaaf

