src/mem_trace.vcd
$date
     Dec 13, 2021       19:33:09
$end

$version
 SystemC 2.3.3-Accellera --- Oct 17 2021 18:22:59
$end

$timescale
     1 ps
$end

$scope module SystemC $end
$var wire    1  aaaaa  clock       $end
$var wire    8  aaaab  address_input [7:0]  $end
$var wire    8  aaaac  data_input [7:0]  $end
$var wire    1  aaaad  read       $end
$var wire    1  aaaae  write       $end
$var wire    8  aaaaf  data_output [7:0]  $end
$upscope $end
$enddefinitions  $end

$comment
All initial values are dumped below at time 0 sec = 0 timescale units.
$end

$dumpvars
1aaaaa
b0 aaaab
b0 aaaac
0aaaad
0aaaae
b0 aaaaf
$end

#1000
0aaaaa
b1010 aaaac
1aaaae

#2000
1aaaaa

#3000
0aaaaa
b1 aaaab
b1011 aaaac

#4000
1aaaaa

#5000
0aaaaa
b10 aaaab
b1100 aaaac

#6000
1aaaaa

#7000
0aaaaa
b11 aaaab
b1101 aaaac

#8000
1aaaaa

#9000
0aaaaa
b100 aaaab
b1110 aaaac

#10000
1aaaaa

#11000
0aaaaa
b101 aaaab
b1111 aaaac

#12000
1aaaaa

#13000
0aaaaa
b110 aaaab
b10000 aaaac

#14000
1aaaaa

#15000
0aaaaa
b111 aaaab
b10001 aaaac

#16000
1aaaaa

#17000
0aaaaa
b1000 aaaab
b10010 aaaac

#18000
1aaaaa

#19000
0aaaaa
b1001 aaaab
b10011 aaaac

#20000
1aaaaa

#21000
0aaaaa
b1010 aaaab
b10100 aaaac

#22000
1aaaaa

#23000
0aaaaa
b1011 aaaab
b10101 aaaac

#24000
1aaaaa

#25000
0aaaaa
0aaaae

#26000
1aaaaa

#27000
0aaaaa
b0 aaaab
1aaaad

#28000
1aaaaa
b1010 aaaaf

#29000
0aaaaa
b1 aaaab

#30000
1aaaaa
b1011 aaaaf

#31000
0aaaaa
b10 aaaab

#32000
1aaaaa
b1100 aaaaf

#33000
0aaaaa
b11 aaaab

#34000
1aaaaa
b1101 aaaaf

#35000
0aaaaa
b100 aaaab

#36000
1aaaaa
b1110 aaaaf

#37000
0aaaaa
b101 aaaab

#38000
1aaaaa
b1111 aaaaf

#39000
0aaaaa
b110 aaaab

#40000
1aaaaa
b10000 aaaaf

#41000
0aaaaa
b111 aaaab

#42000
1aaaaa
b10001 aaaaf

#43000
0aaaaa
b1000 aaaab

#44000
1aaaaa
b10010 aaaaf

#45000
0aaaaa
b1001 aaaab

#46000
1aaaaa
b10011 aaaaf

#47000
0aaaaa
b1010 aaaab

#48000
1aaaaa
b10100 aaaaf

#49000
0aaaaa
b1011 aaaab

#50000
1aaaaa
b10101 aaaaf

#51000
0aaaaa
b1100 aaaab

#52000
1aaaaa
b0 aaaaf

#53000
0aaaaa
b1101 aaaab

#54000
1aaaaa

#55000
0aaaaa
0aaaad

